15;15
0;0;0;0;0;2;1_v_s;1_v_n;2;0;0;0;0;2;1_v_n
0;0;0;0;0;2;1_v_s;1_v_n;2;0;0;0;0;2;1_v_n
0;0;0;0;0;2;1_v_s;1_v_n;2;0;0;0;0;2;1_v_n
2;2;2;6;2;3_e;4_h;4_h;3_s;2;2;5_s_1;2;2;1_v_n
1_h_e;1_h_e;1_h_e;1_h_e;1_h_e;4_v;1_sq_nsew;1_sq_nsew;4_v;1_h_e;1_h_e;1_h_e;1_h_e;1_h_e;1_tl_nw
1_h_w;1_h_w;1_h_w;1_h_w;1_h_w;4_v;1_sq_nsew;1_sq_nsew;4_v;1_h_w;1_h_w;1_h_w;1_h_w;1_h_w;1_tl_wn
2;2;2;2;2;3_n;4_h;4_h;3_w;2;2;2;2;2;1_ru_en
0;0;0;0;0;2;1_v_s;1_v_n;2;0;0;0;0;2;2
0;0;0;0;0;2;1_v_s;1_v_n;6;2;3_s;2;2;2;2
0;0;0;0;0;2;1_v_s;1_tr_ne;1_h_w;1_h_w;4_v;1_h_w;1_ld_ws;2;0
0;0;0;0;0;2;1_v_s;1_v_n;2;2;2;2;1_v_s;2;0
0;0;0;0;0;2;1_v_s;1_v_n;2;2;2;5_e_1;1_v_s;2;0
0;0;0;0;0;2;1_v_s;1_v_n;2;2;3_s;2;1_v_s;2;2
0;0;0;0;0;2;1_v_s;1_tr_wn;1_h_e;1_h_e;4_v;1_h_e;1_td_se;1_h_e;1_h_e
0;0;0;0;0;2;1_tr_se;1_lf_wn;2;2;2;2;2;2;2
